…
``` r
filter(gapminder, continent=="Oceania")
```

    ## # A tibble: 24 x 6
    ##      country continent  year lifeExp      pop gdpPercap
    ##       <fctr>    <fctr> <int>   <dbl>    <int>     <dbl>
    ##  1 Australia   Oceania  1952   69.12  8691212  10039.60
    ##  2 Australia   Oceania  1957   70.33  9712569  10949.65
    ##  3 Australia   Oceania  1962   70.93 10794968  12217.23
    ##  4 Australia   Oceania  1967   71.10 11872264  14526.12
    ##  5 Australia   Oceania  1972   71.93 13177000  16788.63
    ##  6 Australia   Oceania  1977   73.49 14074100  18334.20
    ##  7 Australia   Oceania  1982   74.74 15184200  19477.01
    ##  8 Australia   Oceania  1987   76.32 16257249  21888.89
    ##  9 Australia   Oceania  1992   77.56 17481977  23424.77
    ## 10 Australia   Oceania  1997   78.83 18565243  26997.94
    ## # ... with 14 more rows

``` r
filter(gapminder, continent=="Americas" & year == 1957)
```

    ## # A tibble: 25 x 6
    ##               country continent  year lifeExp      pop gdpPercap
    ##                <fctr>    <fctr> <int>   <dbl>    <int>     <dbl>
    ##  1          Argentina  Americas  1957  64.399 19610538  6856.856
    ##  2            Bolivia  Americas  1957  41.890  3211738  2127.686
    ##  3             Brazil  Americas  1957  53.285 65551171  2487.366
    ##  4             Canada  Americas  1957  69.960 17010154 12489.950
    ##  5              Chile  Americas  1957  56.074  7048426  4315.623
    ##  6           Colombia  Americas  1957  55.118 14485993  2323.806
    ##  7         Costa Rica  Americas  1957  60.026  1112300  2990.011
    ##  8               Cuba  Americas  1957  62.325  6640752  6092.174
    ##  9 Dominican Republic  Americas  1957  49.828  2923186  1544.403
    ## 10            Ecuador  Americas  1957  51.356  4058385  3780.547
    ## # ... with 15 more rows

``` r
select(gapminder, continent,year)
```

    ## # A tibble: 1,704 x 2
    ##    continent  year
    ##       <fctr> <int>
    ##  1      Asia  1952
    ##  2      Asia  1957
    ##  3      Asia  1962
    ##  4      Asia  1967
    ##  5      Asia  1972
    ##  6      Asia  1977
    ##  7      Asia  1982
    ##  8      Asia  1987
    ##  9      Asia  1992
    ## 10      Asia  1997
    ## # ... with 1,694 more rows
…
BONUS
=====

For my bonus task I want to use this data to roughly answer the question: which country currently has the best quality of life? To find that I will create a rough indicator based on life expectancy and GDP per capita and then see which country is at the top of that list.

``` r
gapminder %>%
  mutate(quality=lifeExp*gdpPercap) %>%
  arrange(desc(quality)) %>%
  filter(year=="2007") 
```

    ## # A tibble: 142 x 7
    ##             country continent  year lifeExp       pop gdpPercap quality
    ##              <fctr>    <fctr> <int>   <dbl>     <int>     <dbl>   <dbl>
    ##  1           Norway    Europe  2007  80.196   4627926  49357.19 3958249
    ##  2        Singapore      Asia  2007  79.972   4553009  47143.18 3770134
    ##  3           Kuwait      Asia  2007  77.588   2505559  47306.99 3670455
    ##  4    United States  Americas  2007  78.242 301139947  42951.65 3360623
    ##  5 Hong Kong, China      Asia  2007  82.208   6980412  39724.98 3265711
    ##  6          Ireland    Europe  2007  78.885   4109086  40676.00 3208726
    ##  7      Switzerland    Europe  2007  81.701   7554661  37506.42 3064312
    ##  8          Iceland    Europe  2007  81.757    301931  36180.79 2958033
    ##  9      Netherlands    Europe  2007  79.762  16570613  36797.93 2935077
    ## 10           Canada  Americas  2007  80.653  33390141  36319.24 2929255
    ## # ... with 132 more rows
…
