…
So this graph uses a colour scheme from the viridis package, and also makes use of the cowplot package, which changes the default settings in ggplot to something more minimalist. I like how cowplot altered the fonts so that they are a bit more readable than in base ggplot and also how it automatically changed the units, however in my case it made the units on the x-axis for GDP per capita a bit too cramped. I improved this by changing the base aspect ratio to 1.9 when saving the plot. I've also used the gridExtra package to place both graphs side by side.

Below, I replicate an exercise from class on my own dataset.

``` r
#Prepare greenhouse gas data set for use by changing year and co2pcap to numeric

ghg5 <- ghg4 %>% 
  mutate_at(c(2,3), as.numeric)

ghg5 %>% 
  arrange(-co2pcap)
```

    ## # A tibble: 9,240 x 3
    ##       country  year co2pcap
    ##         <chr> <dbl>   <dbl>
    ##  1 Montserrat  2012 118.930
    ##  2 Montserrat  2013 117.827
    ##  3 Montserrat  2003 117.372
    ##  4 Montserrat  2011 117.343
    ##  5 Montserrat  2004 116.135
    ##  6 Montserrat  2002 113.827
    ##  7 Montserrat  2010 113.621
    ##  8 Montserrat  2001 113.083
    ##  9 Montserrat  2009 108.975
    ## 10 Montserrat  2008 103.878
    ## # ... with 9,230 more rows
…
